Exercício 3 (Capítulo 3) no R
…
library(DescTools)

Warning: package 'DescTools' was built under R version 4.3.3

url <- "https://raw.githubusercontent.com/caio-azevedo/estatistica_aplicada/refs/heads/main/Semana%201/Motiva%C3%A7%C3%A3o_Empresas.csv"
df <- read_csv(url, show_col_types = FALSE)
# Visualização da base de dados 'Motivação Empresas'
print(df)

# A tibble: 250 × 2
   empresa motivacao        
   <chr>   <chr>            
 1 A       muito desmotivado
 2 A       muito desmotivado
 3 A       muito desmotivado
 4 A       muito desmotivado
 5 A       desmotivado      
 6 A       muito desmotivado
 7 A       muito desmotivado
 8 A       muito desmotivado
 9 A       desmotivado      
10 A       desmotivado      
# ℹ 240 more rows
…
